…
… or do your own literature from Pubmed!

``` r
#install.packages('rentrez')
library(rentrez)
litReview(start = 2023, 
          end = 2024 , 
          db = "pubmed",
          term = "Histone lactylation",
          save_file = FALSE)
#> [[1]]
#> # A tibble: 40 × 3
#>     year id       title                                                         
#>    <int> <chr>    <chr>                                                         
#>  1  2023 38707638 20(S)-ginsenoside Rh2 ameliorates ATRA resistance in APL by m…
#>  2  2023 38327665 Lactate regulates major zygotic genome activation by H3K18 la…
#>  3  2023 38162077 [Role of Histone Modifications in Acute Kidney Injury Progres…
#>  4  2023 38155775 Proteomic analysis identifies PFKP lactylation in SW480 colon…
#>  5  2023 38149461 Natural product fargesin interferes with H3 histone lactylati…
#>  6  2023 38101413 BACH1 changes microglial metabolism and affects astrogenesis …
#>  7  2023 38084701 Histone lactylation-derived LINC01127 promotes the self-renew…
#>  8  2023 38074159 Functioning and mechanisms of PTMs in renal diseases.         
#>  9  2023 38051708 Lactate-induced histone lactylation by p300 promotes osteobla…
#> 10  2023 38041125 Glucose transporter 3 (GLUT3) promotes lactylation modificati…
#> # ℹ 30 more rows
…
